io/javabrains/springbootstarter/topic/TopicController.class
io/javabrains/springbootstarter/hello/HelloController.class
io/javabrains/springbootstarter/topic/Topic.class
io/javabrains/springbootstarter/CourseApiApp.class
