/home/roharris/Documents/workspace-sts-3.9.5.RELEASE/course-api/src/main/java/io/javabrains/springbootstarter/topic/Topic.java
/home/roharris/Documents/workspace-sts-3.9.5.RELEASE/course-api/src/main/java/io/javabrains/springbootstarter/topic/TopicController.java
/home/roharris/Documents/workspace-sts-3.9.5.RELEASE/course-api/src/main/java/io/javabrains/springbootstarter/CourseApiApp.java
/home/roharris/Documents/workspace-sts-3.9.5.RELEASE/course-api/src/main/java/io/javabrains/springbootstarter/hello/HelloController.java
